width 30
height 30

rows
1,6,1,1,1,1
5,4,1,1,1
7,4,3,3
7,2,3
19,1
19,1,1
1,21,3
1,8,1,3,5
3,5,4,3
6,3,3
8,3,3
4,1,1,1,1,4
5,7,1
3,1,1,1,3,3,3
3,2
6,4
8,5,1
9,3,1,4
9,2,4,4
9,2,1,3
1,8,5,3
7,3,4,1
10,4,1,4,3
3,4,4,1,4
3,6,2,2
2,3,5,3
10,5
9,7
5,3,6,1
2,2,1,1,4,1

columns
3,5,4
1,5,4
1,2,10
3,4,5,2
7,4,8
12,8,1,1
13,13
10,13
11,12
8,2,2,1,3,4
4,3,4,1,6
1,4,4,2,3
7,7,4
8,3,5
3,3,4,1,8
3,7,5
1,11,4,1
5,3,1,4
3,3,2,1,1,3
4,3,2,7
6,4,2,6
7,4,1,2,4
3,5,2,3,3,4
4,7,4
3,2,1,1,6,1
1,1,4
3,2,1
2,2
1,1,1
3,2
